<svg version="1.1" xmlns="http://www.w3.org/2000/svg" xmlns:xlink="http://www.w3.org/1999/xlink" width="400" height="200" viewBox="0 0 400 200">
  <style>
    #phone-icon path,
    #address-icon path {
      fill: #444;
    }

    #location-icon path {
      fill: #f56a3a;
    }

    #menu-icon line {
      fill: none;
      stroke: #339846;
      stroke-width: 4;
      stroke-linecap: round;
    }

    .down-arrow {
      fill: #fff;
    }

    .erg-logo {
      fill: #339846;
    }

    .social-media-icon {
      fill: #151515;
    }
  </style>

  <defs>
    <filter id="drop-shadow" filterUnits="userSpaceOnUse">
      <feOffset in="SourceAlpha"/>
      <feGaussianBlur stdDeviation="2" result="dropBlur"/>
      <feFlood flood-opacity="0.25"/>
      <feComposite operator="in" in2="dropBlur" result="dropShadowComp"/>
      <feComposite in="SourceGraphic" result="shadowed"/>
    </filter>
  </defs>

  <g id="google-icon">
    <path fill="#ea4535" d="M116.3,126.7c1.2-0.4,2.6-0.4,3.8,0c0.7,0.2,1.3,0.6,1.8,1.1c-0.2,0.2-0.4,0.4-0.5,0.6c-0.3,0.3-0.7,0.7-1,1
      c-0.3-0.3-0.8-0.6-1.2-0.7c-0.5-0.2-1.1-0.2-1.6-0.1c-0.6,0.1-1.2,0.5-1.7,0.9c-0.4,0.4-0.6,0.8-0.8,1.3c-0.6-0.5-1.2-1-1.8-1.4
      C113.7,128.2,114.9,127.2,116.3,126.7z"/>
    <path fill="#f9bc15" d="M112.6,130.9c0.1-0.5,0.3-1,0.5-1.4c0.6,0.5,1.2,1,1.8,1.4c-0.2,0.7-0.2,1.5,0,2.2c-0.6,0.5-1.2,1-1.8,1.4
      C112.5,133.4,112.4,132.1,112.6,130.9z"/>
    <path fill="#557ebf" d="M118.1,130.9c1.8,0,3.5,0,5.3,0c0.2,1,0.1,2-0.1,3c-0.3,0.9-0.7,1.7-1.4,2.3c-0.6-0.5-1.2-0.9-1.8-1.4
      c0.6-0.4,1-1,1.1-1.7c-1,0-2,0-3.1,0C118.1,132.4,118.1,131.7,118.1,130.9z"/>
    <path fill="#36a852" d="M113.1,134.5c0.6-0.5,1.2-1,1.8-1.4c0.2,0.7,0.7,1.3,1.3,1.7c0.4,0.3,0.8,0.5,1.2,0.5c0.4,0.1,0.9,0.1,1.3,0
      c0.4-0.1,0.9-0.2,1.2-0.5c0.6,0.5,1.2,0.9,1.8,1.4c-0.6,0.6-1.4,1-2.3,1.2c-0.9,0.2-1.9,0.2-2.9,0c-0.7-0.2-1.4-0.6-2-1
      C114,135.9,113.5,135.2,113.1,134.5z"/>
  </g>

  <g id="phone-icon">
    <path d="M119.9,107.1l2.9-2.9l-0.3-0.4l-0.1-0.1c-0.2-0.2-0.6-0.3-0.8-0.1l0,0l-0.5,0.5
      c-1.2,1.2-1.5,1.5-1.5,1.5l0,0c-0.2,0.3-0.2,0.7,0,0.9L119.9,107.1z M113.8,114.3c0.2,0.1,0.6,0.2,1.2,0.2c1.1,0,3-0.5,5.5-3.1
      c2.5-2.5,3.1-4.3,3.1-5.5c0-0.6-0.1-0.9-0.2-1.2l-0.2-0.3l-2.9,2.9l0,0l0,0.1c0,0.2-0.2,0.5-0.7,1.1c-0.2,0.3-0.5,0.6-0.8,0.9
      c-0.3,0.3-0.6,0.6-0.9,0.9c-0.5,0.4-0.9,0.7-1.1,0.7l-0.1,0l0,0l-2.9,2.9L113.8,114.3z M112.7,113.3L112.7,113.3
      c0.1,0.1,0.1,0.1,0.1,0.1l0.4,0.4l2.9-2.9l-0.5-0.5c-0.3-0.3-0.7-0.3-1,0c-0.1,0.1-0.4,0.4-1.9,1.9l-0.1,0.1
      C112.4,112.7,112.5,113.1,112.7,113.3z"/>
  </g>

  <g id="address-icon">
    <path d="M118,80.5c-2.3,0-4.2,1.8-4.2,4c0,2.2,4.2,7,4.2,7s4.2-4.8,4.2-7
      C122.2,82.3,120.3,80.5,118,80.5z M118,85.9c-0.8,0-1.4-0.6-1.4-1.4c0-0.8,0.6-1.4,1.4-1.4c0.8,0,1.4,0.6,1.4,1.4
      C119.4,85.3,118.8,85.9,118,85.9z"/>
  </g>

  <g id="location-icon">
    <path d="M135,156c-4.3,0-7.9,3.6-7.9,8c0,1.1,0.6,3.2,2.5,5.5c2.7,3.5,4.7,8.6,5.4,12.5
      c0.7-3.9,2.7-9,5.4-12.5c1.8-2.3,2.5-4.4,2.5-5.5C142.9,159.6,139.3,156,135,156z M135.1,167.7c-1.9,0-3.5-1.6-3.5-3.5
      c0-1.9,1.6-3.5,3.5-3.5c1.9,0,3.5,1.6,3.5,3.5C138.6,166.2,137,167.7,135.1,167.7z"/>
  </g>

  <g id="menu-icon">
    <line x1="94" y1="169" x2="72" y2="169"/>
    <line x1="94" y1="177" x2="72" y2="177"/>
    <line x1="94" y1="161" x2="72" y2="161"/>
  </g>

  <g id="down-arrow">
    <path class="down-arrow" style="filter: url(#drop-shadow);"
      d="M30.59,177.64L17.32,166.77l3.49-6.42L31,168.5l10.2-8.14,3.49,6.42L31.35,177.64H30.59Z"/>
  </g>

  <g id="linkedin-logo">
    <path class="social-media-icon" d="M91,90.6L91,90.6C91,90.6,91,90.6,91,90.6L91,90.6z M84.4,101h-3.7V88.7h3.7V101z
      M90.9,94.3v6.7h-4.1c0,0,0.1-11.2,0-12.3h4.1v2c0.8-1.3,2.2-2.1,3.7-2c2.7,0,4.8,1.6,4.8,5.4v7h-4.1v-6.5c0-1.6-0.6-2.8-2-2.8
      C91.9,91.8,90.9,93,90.9,94.3z M82.5,83c1,0,1.8,0.9,1.8,1.9s-0.9,1.8-1.9,1.8c-1,0-1.8-0.8-1.8-1.8C80.6,83.8,81.5,83,82.5,83
      C82.5,83,82.5,83,82.5,83z"/>
    <path transform="translate(0, 34)" fill="#0077bf" d="M91,90.6L91,90.6C91,90.6,91,90.6,91,90.6L91,90.6z M84.4,101h-3.7V88.7h3.7V101z
      M90.9,94.3v6.7h-4.1c0,0,0.1-11.2,0-12.3h4.1v2c0.8-1.3,2.2-2.1,3.7-2c2.7,0,4.8,1.6,4.8,5.4v7h-4.1v-6.5c0-1.6-0.6-2.8-2-2.8
      C91.9,91.8,90.9,93,90.9,94.3z M82.5,83c1,0,1.8,0.9,1.8,1.9s-0.9,1.8-1.9,1.8c-1,0-1.8-0.8-1.8-1.8C80.6,83.8,81.5,83,82.5,83
      C82.5,83,82.5,83,82.5,83z"/>
  </g>

  <g id="facebook-logo">
    <path class="social-media-icon" d="M51.5,88.9h1.9v-1.6l0,0c0-0.8,0.1-2.2,0.7-3c0.7-0.9,1.8-1.4,3-1.4
      c1.2,0,2.3,0.1,3.5,0.3l-0.5,2.9c-0.5-0.2-1-0.3-1.6-0.3c-0.8,0-1.4,0.3-1.4,1v2.1h3.3l-0.5,2.7H57v9.3h-3.5v-9.3l-2.1,0L51.5,88.9
      L51.5,88.9z"/>
    <path transform="translate(0, 34)" fill="#3b5999" d="M51.5,88.9h1.9v-1.6l0,0c0-0.8,0.1-2.2,0.7-3c0.7-0.9,1.8-1.4,3-1.4
      c1.2,0,2.3,0.1,3.5,0.3l-0.5,2.9c-0.5-0.2-1-0.3-1.6-0.3c-0.8,0-1.4,0.3-1.4,1v2.1h3.3l-0.5,2.7H57v9.3h-3.5v-9.3l-2.1,0L51.5,88.9
      L51.5,88.9z"/>
  </g>

  <g id="twitter-logo">
    <path class="social-media-icon" d="M33.4,85.1c-0.9,0.4-1.8,0.6-2.7,0.7c1-0.6,1.7-1.5,2-2.5c-0.9,0.5-1.9,0.9-3,1.1
      c-0.9-0.9-2.1-1.4-3.4-1.4c-2.5,0-4.6,2-4.7,4.5c0,0,0,0,0,0c0,0.3,0,0.7,0.1,1c-3.7-0.2-7.2-1.9-9.6-4.7c-0.4,0.7-0.6,1.5-0.6,2.3
      c0,1.5,0.8,3,2.1,3.8c-0.7,0-1.5-0.2-2.1-0.6v0.1c0,2.2,1.6,4.1,3.7,4.5c-0.7,0.2-1.4,0.2-2.1,0.1c0.6,1.9,2.4,3.1,4.4,3.2
      c-1.7,1.3-3.7,1.9-5.8,1.9c-0.4,0-0.7,0-1.1-0.1c2.1,1.3,4.6,2,7.1,2c7.2,0.2,13.1-5.5,13.3-12.7c0-0.1,0-0.1,0-0.2
      c0-0.2,0-0.4,0-0.6C31.9,86.8,32.7,86,33.4,85.1L33.4,85.1L33.4,85.1z"/>
    <path transform="translate(0, 34)" fill="#55ace5" d="M33.4,85.1c-0.9,0.4-1.8,0.6-2.7,0.7c1-0.6,1.7-1.5,2-2.5c-0.9,0.5-1.9,0.9-3,1.1
      c-0.9-0.9-2.1-1.4-3.4-1.4c-2.5,0-4.6,2-4.7,4.5c0,0,0,0,0,0c0,0.3,0,0.7,0.1,1c-3.7-0.2-7.2-1.9-9.6-4.7c-0.4,0.7-0.6,1.5-0.6,2.3
      c0,1.5,0.8,3,2.1,3.8c-0.7,0-1.5-0.2-2.1-0.6v0.1c0,2.2,1.6,4.1,3.7,4.5c-0.7,0.2-1.4,0.2-2.1,0.1c0.6,1.9,2.4,3.1,4.4,3.2
      c-1.7,1.3-3.7,1.9-5.8,1.9c-0.4,0-0.7,0-1.1-0.1c2.1,1.3,4.6,2,7.1,2c7.2,0.2,13.1-5.5,13.3-12.7c0-0.1,0-0.1,0-0.2
      c0-0.2,0-0.4,0-0.6C31.9,86.8,32.7,86,33.4,85.1L33.4,85.1L33.4,85.1z"/>
  </g>

  <g id="erg-logo">
    <path class="erg-logo" d="M57.5,10.2h28.1v6H64.7v14h19.1v6H64.7V52h20.9v6H57.5V10.2z M159,19.2
      c-3.3-2.2-6.9-3.3-13-3.3c-10.9,0-18.1,7.9-18.1,18.5c0,11.1,8,18.5,17.8,18.5c4.7,0,5.9-0.5,7.6-0.8V37.8h-10v-5.6H160v24.6
      c-2.6,0.9-7,2.1-14.4,2.1c-15,0-24.9-9.6-24.9-24.6c0-14.6,10.6-24.2,25-24.2c6.9,0,10,1,13.9,2.4L159,19.2z M57.9,61.7h-4.5
      l-3.2-3.6l3.5-0.1L57.9,61.7z M53.7,58.1c0,0,0.4-4.1-0.2-14.5C52,28.1,41.7,19.1,24.2,13.8c-2.9-0.9-11-2.2-14.2-3.5
      c0.2,1.2-0.1,24.8,6.6,34.5c3.3,4.7,6.5,8.4,12.4,11c4.4,1.9,7.4,2.3,12.2,2.3L53.7,58.1z M51.4,58.7l0.8-0.6L51.4,58.7z M53.8,58.1
      l-3.6,0.1c-3.6-3.5-7.4-10-9.4-13.3c-5.9-9.1-12.2-17.6-16.3-20c6.1,2.6,13.4,12,18.1,18.8C45.1,47.8,47.6,51.9,53.8,58.1z M97,16.3
      h6.6c6.3,0,9.6,2.7,9.6,7.1c0,4.6-3.8,7.5-10.4,7.5H97V16.3z M90.2,58.1H97V36.9h4.1c3.6,0,5.9,0,8,4.7l7.3,16.6h7.8L115.3,39
      c-1.5-2.9-2.5-4-4.7-4.8v-0.1c5.6-1,9.9-5.1,9.9-10.9c0-11.5-9.1-13-18.6-13H90.2V58.1z"/>
    <path transform="translate(160, 0)" fill="#ffffff" style="filter: url(#drop-shadow);"
      d="M57.5,10.2h28.1v6H64.7v14h19.1v6H64.7V52h20.9v6H57.5V10.2z M159,19.2
      c-3.3-2.2-6.9-3.3-13-3.3c-10.9,0-18.1,7.9-18.1,18.5c0,11.1,8,18.5,17.8,18.5c4.7,0,5.9-0.5,7.6-0.8V37.8h-10v-5.6H160v24.6
      c-2.6,0.9-7,2.1-14.4,2.1c-15,0-24.9-9.6-24.9-24.6c0-14.6,10.6-24.2,25-24.2c6.9,0,10,1,13.9,2.4L159,19.2z M57.9,61.7h-4.5
      l-3.2-3.6l3.5-0.1L57.9,61.7z M53.7,58.1c0,0,0.4-4.1-0.2-14.5C52,28.1,41.7,19.1,24.2,13.8c-2.9-0.9-11-2.2-14.2-3.5
      c0.2,1.2-0.1,24.8,6.6,34.5c3.3,4.7,6.5,8.4,12.4,11c4.4,1.9,7.4,2.3,12.2,2.3L53.7,58.1z M51.4,58.7l0.8-0.6L51.4,58.7z M53.8,58.1
      l-3.6,0.1c-3.6-3.5-7.4-10-9.4-13.3c-5.9-9.1-12.2-17.6-16.3-20c6.1,2.6,13.4,12,18.1,18.8C45.1,47.8,47.6,51.9,53.8,58.1z M97,16.3
      h6.6c6.3,0,9.6,2.7,9.6,7.1c0,4.6-3.8,7.5-10.4,7.5H97V16.3z M90.2,58.1H97V36.9h4.1c3.6,0,5.9,0,8,4.7l7.3,16.6h7.8L115.3,39
      c-1.5-2.9-2.5-4-4.7-4.8v-0.1c5.6-1,9.9-5.1,9.9-10.9c0-11.5-9.1-13-18.6-13H90.2V58.1z"/>
  </g>
</svg>
